^D:\AI\ASSIGNMENT\TEST CSPS\TEST CSPS\DEBUG\CSP.OBJ
/OUT:"D:\AI\ASSIGNMENT\TEST CSPS\DEBUG\TEST CSPS.EXE" /INCREMENTAL /NOLOGO kernel32.lib user32.lib gdi32.lib winspool.lib comdlg32.lib advapi32.lib shell32.lib ole32.lib oleaut32.lib uuid.lib odbc32.lib odbccp32.lib /MANIFEST /MANIFESTUAC:"level='asInvoker' uiAccess='false'" /manifest:embed /DEBUG /PDB:"D:\AI\ASSIGNMENT\TEST CSPS\DEBUG\TEST CSPS.PDB" /TLBID:1 /DYNAMICBASE /NXCOMPAT /IMPLIB:"D:\AI\ASSIGNMENT\TEST CSPS\DEBUG\TEST CSPS.LIB" /MACHINE:X86 DEBUG\CSP.OBJ
^D:\AI\ASSIGNMENT\TEST CSPS\TEST CSPS\DEBUG\ADDITION.OBJ|D:\AI\ASSIGNMENT\TEST CSPS\TEST CSPS\DEBUG\BACKTRACKING.OBJ|D:\AI\ASSIGNMENT\TEST CSPS\TEST CSPS\DEBUG\GRAPHIC.OBJ|D:\AI\ASSIGNMENT\TEST CSPS\TEST CSPS\DEBUG\IMPORTDATA.OBJ|D:\AI\ASSIGNMENT\TEST CSPS\TEST CSPS\DEBUG\MAIN.OBJ|D:\AI\ASSIGNMENT\TEST CSPS\TEST CSPS\DEBUG\RUN.OBJ
/OUT:"D:\AI\ASSIGNMENT\TEST CSPS\DEBUG\TEST CSPS.EXE" /INCREMENTAL /NOLOGO kernel32.lib user32.lib gdi32.lib winspool.lib comdlg32.lib advapi32.lib shell32.lib ole32.lib oleaut32.lib uuid.lib odbc32.lib odbccp32.lib /MANIFEST /MANIFESTUAC:"level='asInvoker' uiAccess='false'" /manifest:embed /DEBUG /PDB:"D:\AI\ASSIGNMENT\TEST CSPS\DEBUG\TEST CSPS.PDB" /TLBID:1 /DYNAMICBASE /NXCOMPAT /IMPLIB:"D:\AI\ASSIGNMENT\TEST CSPS\DEBUG\TEST CSPS.LIB" /MACHINE:X86 DEBUG\ADDITION.OBJDEBUG\BACKTRACKING.OBJDEBUG\RUN.OBJDEBUG\GRAPHIC.OBJDEBUG\IMPORTDATA.OBJDEBUG\MAIN.OBJ
