^D:\AI\ASSIGNMENT\TEST CSPS\TEST CSPS\DEBUG\ADDITION.OBJ|D:\AI\ASSIGNMENT\TEST CSPS\TEST CSPS\DEBUG\BACKTRACKING.OBJ|D:\AI\ASSIGNMENT\TEST CSPS\TEST CSPS\DEBUG\GRAPHIC.OBJ|D:\AI\ASSIGNMENT\TEST CSPS\TEST CSPS\DEBUG\IMPORTDATA.OBJ|D:\AI\ASSIGNMENT\TEST CSPS\TEST CSPS\DEBUG\MAIN.OBJ|D:\AI\ASSIGNMENT\TEST CSPS\TEST CSPS\DEBUG\RUN.OBJ
D:\AI\ASSIGNMENT\TEST CSPS\DEBUG\TEST CSPS.ILK
D:\AI\ASSIGNMENT\TEST CSPS\DEBUG\TEST CSPS.EXE
D:\AI\ASSIGNMENT\TEST CSPS\DEBUG\TEST CSPS.PDB
